…
#### Resolution of each City

``` r
homicides_df %>% 
  group_by(city_state) %>% 
  summarize(
    unsolved = sum(resolution == "unsolved"),
    n = n()) 
```

    ## # A tibble: 50 × 3
    ##    city_state    unsolved     n
    ##    <chr>            <int> <int>
    ##  1 AlbuquerqueNM      146   378
    ##  2 AtlantaGA          373   973
    ##  3 BaltimoreMD       1825  2827
    ##  4 Baton RougeLA      196   424
    ##  5 BirminghamAL       347   800
    ##  6 BostonMA           310   614
    ##  7 BuffaloNY          319   521
    ##  8 CharlotteNC        206   687
    ##  9 ChicagoIL         4073  5535
    ## 10 CincinnatiOH       309   694
    ## # … with 40 more rows
…
results_df
```

    ## # A tibble: 50 × 4
    ##    city_state    estimate conf.low conf.high
    ##    <chr>            <dbl>    <dbl>     <dbl>
    ##  1 AlbuquerqueNM    0.386    0.337     0.438
    ##  2 AtlantaGA        0.383    0.353     0.415
    ##  3 BaltimoreMD      0.646    0.628     0.663
    ##  4 Baton RougeLA    0.462    0.414     0.511
    ##  5 BirminghamAL     0.434    0.399     0.469
    ##  6 BostonMA         0.505    0.465     0.545
    ##  7 BuffaloNY        0.612    0.569     0.654
    ##  8 CharlotteNC      0.300    0.266     0.336
    ##  9 ChicagoIL        0.736    0.724     0.747
    ## 10 CincinnatiOH     0.445    0.408     0.483
    ## # … with 40 more rows
…
